<?xml version="1.0" encoding="UTF-8" standalone="no"?>
<!-- Created with Inkscape (http://www.inkscape.org/) -->

<svg
   width="66.699997mm"
   height="11.97mm"
   viewBox="0 0 66.699998 11.97"
   version="1.1"
   id="svg5"
   inkscape:version="1.1 (c68e22c387, 2021-05-23)"
   sodipodi:docname="sb-logo.svg"
   xmlns:inkscape="http://www.inkscape.org/namespaces/inkscape"
   xmlns:sodipodi="http://sodipodi.sourceforge.net/DTD/sodipodi-0.dtd"
   xmlns="http://www.w3.org/2000/svg"
   xmlns:svg="http://www.w3.org/2000/svg">
  <sodipodi:namedview
     id="namedview7"
     pagecolor="#ffffff"
     bordercolor="#666666"
     borderopacity="1.0"
     inkscape:pageshadow="2"
     inkscape:pageopacity="0.0"
     inkscape:pagecheckerboard="true"
     inkscape:document-units="mm"
     showgrid="false"
     showguides="true"
     inkscape:guide-bbox="true"
     width="80.86mm"
     inkscape:zoom="2.8284271"
     inkscape:cx="131.69864"
     inkscape:cy="34.825009"
     inkscape:window-width="1920"
     inkscape:window-height="1027"
     inkscape:window-x="1912"
     inkscape:window-y="-8"
     inkscape:window-maximized="1"
     inkscape:current-layer="layer1"
     height="11.97mm">
    <sodipodi:guide
       position="80.862387,291.38808"
       orientation="1,0"
       id="guide48665" />
    <sodipodi:guide
       position="5.9861979,285.0276"
       orientation="0,-1"
       id="guide48667" />
  </sodipodi:namedview>
  <defs
     id="defs2" />
  <g
     inkscape:label="Layer 1"
     inkscape:groupmode="layer"
     id="layer1">
    <g
       aria-label="songbucket"
       id="text2475"
       style="font-weight:bold;font-size:8.46667px;line-height:0.95;font-family:'Malgun Gothic';-inkscape-font-specification:'Malgun Gothic, Bold';letter-spacing:0.529167px;stroke-width:0.264583">
      <path
         d="m 15.717959,7.375566 q 0.644922,0.4051434 1.273308,0.4051434 0.810287,0 0.810287,-0.4588869 0,-0.3183269 -0.640788,-0.5374351 -0.93431,-0.3141928 -1.186492,-0.6159833 -0.252181,-0.3059246 -0.252181,-0.781348 0,-0.6283856 0.512631,-0.9839196 0.51263,-0.3596681 1.318783,-0.3596681 0.56224,0 1.124479,0.177767 V 5.1596797 Q 18.16949,4.8578893 17.565909,4.8578893 q -0.318327,0 -0.51263,0.1198893 -0.194304,0.1198894 -0.194304,0.318327 0,0.3265952 0.54157,0.5167645 0.615983,0.2232423 0.905371,0.3762046 0.289388,0.1488282 0.450619,0.4092775 0.16123,0.2604493 0.16123,0.6118492 0,0.6614586 -0.529167,1.0252608 -0.525032,0.3638022 -1.389063,0.3638022 -0.727604,0 -1.281576,-0.2315105 z"
         id="path80527" />
      <path
         d="m 20.038111,6.3461711 q 0,-1.066602 0.628386,-1.6825853 0.628385,-0.6201174 1.703255,-0.6201174 1.037664,0 1.63711,0.607715 0.603581,0.603581 0.603581,1.6205736 0,1.0583338 -0.624251,1.6949877 -0.620118,0.6325197 -1.682585,0.6325197 -1.041798,0 -1.653647,-0.607715 -0.611849,-0.6118492 -0.611849,-1.6453783 z m 1.165821,-0.016536 q 0,1.3683925 1.136882,1.3683925 1.09554,0 1.09554,-1.4014654 0,-1.3559901 -1.099674,-1.3559901 -0.537436,0 -0.835092,0.3720704 -0.297656,0.3679364 -0.297656,1.0169926 z"
         id="path80529" />
      <path
         d="M 30.10055,8.4917774 H 28.951266 V 6.056783 q 0,-1.1162114 -0.806153,-1.1162114 -0.405143,0 -0.661459,0.3059246 -0.252181,0.3017905 -0.252181,0.7689456 V 8.4917774 H 26.078055 V 4.1468213 h 1.153418 v 0.6986656 h 0.0124 q 0.479557,-0.8020185 1.409733,-0.8020185 1.446941,0 1.446941,1.7900723 z"
         id="path80531" />
      <path
         d="m 35.855239,8.0411588 q 0,1.2071619 -0.665593,1.8479499 -0.665592,0.6449223 -1.930632,0.6449223 -0.859896,0 -1.397331,-0.268718 V 9.2648572 q 0.682129,0.392741 1.368392,0.392741 0.7028,0 1.087273,-0.3762046 0.388607,-0.3720704 0.388607,-1.0624679 V 7.8344529 h -0.01654 q -0.471289,0.7648115 -1.393197,0.7648115 -0.810287,0 -1.306381,-0.5829103 -0.496094,-0.5829104 -0.496094,-1.5709642 0,-1.0955408 0.54157,-1.7487312 0.545703,-0.6531903 1.434538,-0.6531903 0.806153,0 1.219564,0.6366539 h 0.01654 v -0.533301 h 1.149284 z M 34.718357,6.0113077 q 0,-0.4423505 -0.276986,-0.7565433 -0.276985,-0.3141928 -0.702799,-0.3141928 -0.496094,0 -0.789617,0.3844728 -0.289388,0.3844728 -0.289388,1.0748702 0,0.5953127 0.276986,0.9467126 0.276986,0.3513999 0.735873,0.3513999 0.467155,0 0.756543,-0.3513999 0.289388,-0.3513999 0.289388,-0.9053714 z"
         id="path80533" />
      <path
         d="M 38.740853,7.9502082 V 8.4917774 H 37.587434 V 2.0632267 h 1.153419 v 2.7698579 h 0.0124 q 0.504362,-0.7896162 1.438673,-0.7896162 0.826823,0 1.293978,0.5787762 0.467155,0.5787763 0.467155,1.5750983 0,1.0872726 -0.537435,1.7445971 -0.533301,0.6573244 -1.422136,0.6573244 -0.814421,0 -1.240235,-0.6490562 z m -0.01654,-1.314649 q 0,0.4506187 0.276986,0.7565433 0.276986,0.3059246 0.694532,0.3059246 0.504362,0 0.789616,-0.392741 0.285254,-0.3927411 0.285254,-1.1038091 0,-0.5911786 -0.26045,-0.926042 -0.260449,-0.3348634 -0.735872,-0.3348634 -0.458887,0 -0.756543,0.3389975 -0.293523,0.3389975 -0.293523,0.8640303 z"
         id="path80535" />
      <path
         d="M 47.372888,8.4917774 H 46.223604 V 7.8220506 h -0.02067 q -0.479557,0.7772138 -1.331185,0.7772138 -1.525489,0 -1.525489,-1.8355476 V 4.1468213 h 1.153418 v 2.4970062 q 0,1.0541996 0.818555,1.0541996 0.40101,0 0.653191,-0.285254 0.252181,-0.2893882 0.252181,-0.7730798 v -2.492872 h 1.149284 z"
         id="path80537" />
      <path
         d="m 52.300752,8.3222787 q -0.467155,0.2769857 -1.277442,0.2769857 -0.975651,0 -1.583367,-0.5994468 -0.60358,-0.603581 -0.60358,-1.5750983 0,-1.1079431 0.649056,-1.744597 0.649056,-0.6366539 1.732194,-0.6366539 0.706934,0 1.083139,0.2067058 v 1.0128584 q -0.438216,-0.322461 -0.967383,-0.322461 -0.603581,0 -0.967383,0.3803387 -0.363803,0.3762045 -0.363803,1.0211267 0,0.6366539 0.343132,0.996322 0.343132,0.3596681 0.942578,0.3596681 0.525033,0 1.012859,-0.3307293 z"
         id="path80539" />
      <path
         d="M 57.89008,8.4917774 H 56.46381 L 54.921785,6.3544393 h -0.0124 V 8.4917774 H 53.755964 V 2.0632267 h 1.153418 v 4.0886409 h 0.0124 l 1.451074,-2.0050463 h 1.393198 l -1.690854,2.0587898 z"
         id="path80541" />
      <path
         d="m 62.768336,6.6438275 h -2.902149 q 0.07028,1.1079431 1.256771,1.1079431 0.72347,0 1.289844,-0.3803387 v 0.8764327 q -0.603581,0.3513998 -1.550293,0.3513998 -1.012859,0 -1.579233,-0.5870445 -0.562239,-0.5870445 -0.562239,-1.6412441 0,-1.0335291 0.603581,-1.6784512 0.607715,-0.6490562 1.51722,-0.6490562 0.909506,0 1.418002,0.5581056 0.508496,0.5581057 0.508496,1.5337572 z M 61.681064,5.8872842 q 0,-1.0335291 -0.851628,-1.0335291 -0.355534,0 -0.628386,0.2811199 -0.268717,0.2811199 -0.334863,0.7524092 z"
         id="path80543" />
      <path
         d="m 66.613064,8.4463021 q -0.293522,0.1488282 -0.818555,0.1488282 -1.33532,0 -1.33532,-1.4138677 V 5.0232539 H 63.739853 V 4.1468213 h 0.719336 V 3.1753039 l 1.149285,-0.3348634 v 1.3063808 h 1.00459 v 0.8764326 h -1.00459 v 1.955437 q 0,0.7193362 0.566374,0.7193362 0.235644,0 0.438216,-0.1322917 z"
         id="path80545" />
    </g>
  </g>
  <g
     inkscape:groupmode="layer"
     id="layer3"
     inkscape:label="Layer 3">
    <path
       id="path48353"
       style="fill:#000000;fill-opacity:1;stroke:none;stroke-width:1.255;stroke-linecap:square;stroke-linejoin:round;stroke-miterlimit:4;stroke-dasharray:none;stroke-opacity:1;paint-order:markers fill stroke"
       d="M 5.986206,0 A 5.9860623,5.9860623 0 0 0 0,5.9862061 5.9860623,5.9860623 0 0 0 5.986206,11.972413 5.9860623,5.9860623 0 0 0 11.972414,5.9862061 5.9860623,5.9860623 0 0 0 5.986206,0 Z m 1.76065,2.8170381 a 1.4084852,1.4084852 0 0 1 1.4085185,1.40852 1.4084852,1.4084852 0 0 1 -1.4085185,1.408519 1.4084852,1.4084852 0 0 1 -1.408519,-1.408519 1.4084852,1.4084852 0 0 1 1.408519,-1.40852 z" />
  </g>
  <g
     inkscape:groupmode="layer"
     id="layer2"
     inkscape:label="Layer 2"
     style="display:none">
    <path
       style="fill:none;stroke:#000000;stroke-width:1.16342;stroke-linecap:butt;stroke-linejoin:round;stroke-miterlimit:4;stroke-dasharray:none;stroke-opacity:1"
       d="m 26.865346,27.499695 c 1.111085,0 0.71497,1.259712 0.71497,1.259712 l -1.838493,9.430775 c -0.442599,1.804446 -0.120909,1.804446 -1.191614,1.804446 -2.03142,0 -4.539486,0 -6.570907,0 -0.661223,0 -0.731494,0 -1.055429,-1.804446 l -1.736354,-9.328634 c -0.01372,-0.03926 -0.371651,-1.361853 0.783061,-1.361854 z"
       id="path33903"
       sodipodi:nodetypes="cccccccccc" />
  </g>
</svg>
